{
  "href": "https://api.sandbox.ebay.com/buy/browse/v1/item_summary/search?q=iphone&limit=10&offset=0",
  "total": 12477,
  "next": "https://api.sandbox.ebay.com/buy/browse/v1/item_summary/search?q=iphone&limit=10&offset=10",
  "limit": 10,
  "offset": 0,
  "itemSummaries": [
    {
      "itemId": "v1|110241616770|0",
      "title": "Apple iPhone SE 16GB Rose Gold LTE Cellular TracFone MP8N2LL/A",
      "price": {
        "value": "170.40",
        "currency": "USD"
      },
      "itemHref": "https://api.sandbox.ebay.com/buy/browse/v1/item/v1|110241616770|0",
      "seller": {
        "feedbackScore": 500
      },
      "condition": "New",
      "conditionId": "1000",
      "shippingOptions": [
        {
          "shippingCostType": "FIXED",
          "shippingCost": {
            "value": "0.00",
            "currency": "USD"
          }
        }
      ],
      "buyingOptions": [
        "FIXED_PRICE"
      ],
      "currentBidPrice": {
        "value": "170.40",
        "currency": "USD"
      },
      "itemAffiliateWebUrl": "https://rover.ebay.com/rover/1/711-53200-19255-0/1?campid=%3CePNCampaignId%3E&customid=%3CreferenceId%3E&toolid=10049&mpre=http%3A%2F%2Fwww.ebay.com%2Fitm%2FApple-iPhone-SE-16GB-Rose-Gold-LTE-Cellular-TracFone-MP8N2LL-A%2F110241616770%3Fsrc%3Durllib%26hash%3Ditem19aae99382%3Ai%3A110241616770",
      "itemWebUrl": "http://www.ebay.com/itm/Apple-iPhone-SE-16GB-Rose-Gold-LTE-Cellular-TracFone-MP8N2LL-A/110241616770?src=urllib&hash=item19aae99382:i:110241616770",
      "itemLocation": {
        "postalCode": "72756",
        "country": "US"
      },
      "categories": [
        {
          "categoryId": "9355"
        },
        {
          "categoryId": "15032"
        }
      ],
      "adultOnly": false
    },
    {
      "itemId": "v1|110215098828|0",
      "title": "Apple iPhone 5S 16GB Space Gray LTE Cellular Straight Talk MN6R2LL/A",
      "price": {
        "value": "95.27",
        "currency": "USD"
      },
      "itemHref": "https://api.sandbox.ebay.com/buy/browse/v1/item/v1|110215098828|0",
      "seller": {
        "feedbackScore": 500
      },
      "condition": "New",
      "conditionId": "1000",
      "shippingOptions": [
        {
          "shippingCostType": "FIXED",
          "shippingCost": {
            "value": "0.00",
            "currency": "USD"
          }
        }
      ],
      "buyingOptions": [
        "FIXED_PRICE"
      ],
      "currentBidPrice": {
        "value": "95.27",
        "currency": "USD"
      },
      "itemAffiliateWebUrl": "https://rover.ebay.com/rover/1/711-53200-19255-0/1?campid=%3CePNCampaignId%3E&customid=%3CreferenceId%3E&toolid=10049&mpre=http%3A%2F%2Fwww.ebay.com%2Fitm%2FApple-iPhone-5S-16GB-Space-Gray-LTE-Cellular-Straight-Talk-MN6R2LL-A%2F110215098828%3Fsrc%3Durllib%26hash%3Ditem19a954f1cc%3Ai%3A110215098828",
      "itemWebUrl": "http://www.ebay.com/itm/Apple-iPhone-5S-16GB-Space-Gray-LTE-Cellular-Straight-Talk-MN6R2LL-A/110215098828?src=urllib&hash=item19a954f1cc:i:110215098828",
      "itemLocation": {
        "postalCode": "72756",
        "country": "US"
      },
      "categories": [
        {
          "categoryId": "9355"
        },
        {
          "categoryId": "15032"
        }
      ],
      "adultOnly": false
    },
    {
      "itemId": "v1|110215108658|0",
      "title": "Apple iPhone 5S 16GB Silver LTE Cellular Straight Talk MN6T2LL/A",
      "image": {
        "imageUrl": "https://i.ebayimg.com/thumbs/images/g/3skAAOSwnehZgLX3/s-l225.jpg"
      },
      "price": {
        "value": "143.22",
        "currency": "USD"
      },
      "itemHref": "https://api.sandbox.ebay.com/buy/browse/v1/item/v1|110215108658|0",
      "seller": {
        "feedbackScore": 500
      },
      "condition": "New",
      "conditionId": "1000",
      "shippingOptions": [
        {
          "shippingCostType": "FIXED",
          "shippingCost": {
            "value": "0.00",
            "currency": "USD"
          }
        }
      ],
      "buyingOptions": [
        "FIXED_PRICE"
      ],
      "currentBidPrice": {
        "value": "143.22",
        "currency": "USD"
      },
      "itemAffiliateWebUrl": "https://rover.ebay.com/rover/1/711-53200-19255-0/1?campid=%3CePNCampaignId%3E&customid=%3CreferenceId%3E&toolid=10049&mpre=http%3A%2F%2Fwww.ebay.com%2Fitm%2FApple-iPhone-5S-16GB-Silver-LTE-Cellular-Straight-Talk-MN6T2LL-A%2F110215108658%3Fsrc%3Durllib%26hash%3Ditem19a9551832%3Ag%3A3skAAOSwnehZgLX3",
      "itemWebUrl": "http://www.ebay.com/itm/Apple-iPhone-5S-16GB-Silver-LTE-Cellular-Straight-Talk-MN6T2LL-A/110215108658?src=urllib&hash=item19a9551832:g:3skAAOSwnehZgLX3",
      "itemLocation": {
        "postalCode": "72756",
        "country": "US"
      },
      "categories": [
        {
          "categoryId": "9355"
        },
        {
          "categoryId": "15032"
        }
      ],
      "adultOnly": false
    },
    {
      "itemId": "v1|110215122962|0",
      "title": "Apple iPhone 6 16GB Silver LTE Cellular Verizon MG5X2LL/A",
      "price": {
        "value": "349.50",
        "currency": "USD"
      },
      "itemHref": "https://api.sandbox.ebay.com/buy/browse/v1/item/v1|110215122962|0",
      "seller": {
        "feedbackScore": 500
      },
      "condition": "New",
      "conditionId": "1000",
      "shippingOptions": [
        {
          "shippingCostType": "FIXED",
          "shippingCost": {
            "value": "0.00",
            "currency": "USD"
          }
        }
      ],
      "buyingOptions": [
        "FIXED_PRICE"
      ],
      "currentBidPrice": {
        "value": "349.50",
        "currency": "USD"
      },
      "itemAffiliateWebUrl": "https://rover.ebay.com/rover/1/711-53200-19255-0/1?campid=%3CePNCampaignId%3E&customid=%3CreferenceId%3E&toolid=10049&mpre=http%3A%2F%2Fwww.ebay.com%2Fitm%2FApple-iPhone-6-16GB-Silver-LTE-Cellular-Verizon-MG5X2LL-A%2F110215122962%3Fsrc%3Durllib%26hash%3Ditem19a9555012%3Ai%3A110215122962",
      "itemWebUrl": "http://www.ebay.com/itm/Apple-iPhone-6-16GB-Silver-LTE-Cellular-Verizon-MG5X2LL-A/110215122962?src=urllib&hash=item19a9555012:i:110215122962",
      "itemLocation": {
        "postalCode": "72756",
        "country": "US"
      },
      "categories": [
        {
          "categoryId": "9355"
        },
        {
          "categoryId": "15032"
        }
      ],
      "additionalImages": [
        {
          "imageUrl": "https://galleryplus.ebayimg.com/ws/web/110215122962_2_0_1/225x225.jpg"
        },
        {
          "imageUrl": "https://galleryplus.ebayimg.com/ws/web/110215122962_3_0_1/225x225.jpg"
        }
      ],
      "adultOnly": false
    },
    {
      "itemId": "v1|110254731107|410088046607",
      "title": "Apple iPhone 7",
      "itemGroupHref": "https://api.sandbox.ebay.com/buy/browse/v1/item/get_items_by_item_group?item_group_id=110254731107",
      "price": {
        "value": "100.00",
        "currency": "USD"
      },
      "itemGroupType": "SELLER_DEFINED_VARIATIONS",
      "itemHref": "https://api.sandbox.ebay.com/buy/browse/v1/item/v1|110254731107|410088046607",
      "seller": {
        "feedbackScore": 500
      },
      "condition": "New",
      "conditionId": "1000",
      "shippingOptions": [
        {
          "shippingCostType": "FIXED",
          "shippingCost": {
            "value": "0.00",
            "currency": "USD"
          }
        }
      ],
      "buyingOptions": [
        "FIXED_PRICE"
      ],
      "currentBidPrice": {
        "value": "100.00",
        "currency": "USD"
      },
      "itemAffiliateWebUrl": "https://rover.ebay.com/rover/1/711-53200-19255-0/1?campid=%3CePNCampaignId%3E&customid=%3CreferenceId%3E&toolid=10049&mpre=http%3A%2F%2Fwww.ebay.com%2Fitm%2FApple-iPhone-7%2F110254731107%3Fsrc%3Durllib%26hash%3Ditem19abb1af63%3Ai%3A110254731107",
      "itemWebUrl": "http://www.ebay.com/itm/Apple-iPhone-7/110254731107?src=urllib&hash=item19abb1af63:i:110254731107",
      "itemLocation": {
        "postalCode": "98102",
        "country": "US"
      },
      "categories": [
        {
          "categoryId": "9355"
        },
        {
          "categoryId": "15032"
        }
      ],
      "adultOnly": false
    },
    {
      "itemId": "v1|110198974152|0",
      "title": "New apple iphone 6S TEST_ITEM_2017_5_16_1",
      "image": {
        "imageUrl": "https://i.ebayimg.com/thumbs/images/g/ce4AAOSwepJXcYht/s-l225.jpg"
      },
      "price": {
        "value": "165.00",
        "currency": "USD"
      },
      "itemHref": "https://api.sandbox.ebay.com/buy/browse/v1/item/v1|110198974152|0",
      "seller": {
        "feedbackScore": 500
      },
      "condition": "New",
      "conditionId": "1000",
      "shippingOptions": [
        {
          "shippingCostType": "FIXED",
          "shippingCost": {
            "value": "0.00",
            "currency": "USD"
          }
        }
      ],
      "buyingOptions": [
        "FIXED_PRICE"
      ],
      "currentBidPrice": {
        "value": "165.00",
        "currency": "USD"
      },
      "itemAffiliateWebUrl": "https://rover.ebay.com/rover/1/711-53200-19255-0/1?campid=%3CePNCampaignId%3E&customid=%3CreferenceId%3E&toolid=10049&mpre=http%3A%2F%2Fwww.ebay.com%2Fitm%2FNew-apple-iphone-6S-TEST-ITEM-2017-5-16-1%2F110198974152%3Fsrc%3Durllib%26hash%3Ditem19a85ee6c8%3Ag%3Ace4AAOSwepJXcYht",
      "itemWebUrl": "http://www.ebay.com/itm/New-apple-iphone-6S-TEST-ITEM-2017-5-16-1/110198974152?src=urllib&hash=item19a85ee6c8:g:ce4AAOSwepJXcYht",
      "itemLocation": {
        "postalCode": "95125",
        "country": "US"
      },
      "categories": [
        {
          "categoryId": "9355"
        },
        {
          "categoryId": "15032"
        }
      ],
      "additionalImages": [
        {
          "imageUrl": "https://galleryplus.ebayimg.com/ws/web/110198974152_2_0_1/225x225.jpg"
        }
      ],
      "adultOnly": false
    },
    {
      "itemId": "v1|110241566114|0",
      "title": "Apple iPhone 5S 16GB Space Gray LTE Cellular Verizon ME341LL/A",
      "image": {
        "imageUrl": "https://i.ebayimg.com/thumbs/images/m/mXw8coqdGjBv1j6Hs-JkkQw/s-l225.jpg"
      },
      "price": {
        "value": "254.58",
        "currency": "USD"
      },
      "itemHref": "https://api.sandbox.ebay.com/buy/browse/v1/item/v1|110241566114|0",
      "seller": {
        "feedbackScore": 500
      },
      "condition": "New",
      "conditionId": "1000",
      "shippingOptions": [
        {
          "shippingCostType": "FIXED",
          "shippingCost": {
            "value": "0.00",
            "currency": "USD"
          }
        }
      ],
      "buyingOptions": [
        "FIXED_PRICE"
      ],
      "currentBidPrice": {
        "value": "254.58",
        "currency": "USD"
      },
      "itemAffiliateWebUrl": "https://rover.ebay.com/rover/1/711-53200-19255-0/1?campid=%3CePNCampaignId%3E&customid=%3CreferenceId%3E&toolid=10049&mpre=http%3A%2F%2Fwww.ebay.com%2Fitm%2FApple-iPhone-5S-16GB-Space-Gray-LTE-Cellular-Verizon-ME341LL-A%2F110241566114%3Fsrc%3Durllib%26hash%3Ditem19aae8cda2%3Am%3AmXw8coqdGjBv1j6Hs-JkkQw",
      "itemWebUrl": "http://www.ebay.com/itm/Apple-iPhone-5S-16GB-Space-Gray-LTE-Cellular-Verizon-ME341LL-A/110241566114?src=urllib&hash=item19aae8cda2:m:mXw8coqdGjBv1j6Hs-JkkQw",
      "itemLocation": {
        "postalCode": "72756",
        "country": "US"
      },
      "categories": [
        {
          "categoryId": "9355"
        },
        {
          "categoryId": "15032"
        }
      ],
      "additionalImages": [
        {
          "imageUrl": "https://galleryplus.ebayimg.com/ws/web/110241566114_2_0_1/225x225.jpg"
        }
      ],
      "adultOnly": false
    },
    {
      "itemId": "v1|110205978960|0",
      "title": "Apple iPhone 5S 16GB Silver LTE Cellular AT&T ME306LL/A",
      "image": {
        "imageUrl": "https://i.ebayimg.com/thumbs/images/m/mtjmHzKvQMyw1yiq_iPIgGw/s-l225.jpg"
      },
      "price": {
        "value": "203.66",
        "currency": "USD"
      },
      "itemHref": "https://api.sandbox.ebay.com/buy/browse/v1/item/v1|110205978960|0",
      "seller": {
        "feedbackScore": 500
      },
      "condition": "New",
      "conditionId": "1000",
      "shippingOptions": [
        {
          "shippingCostType": "FIXED",
          "shippingCost": {
            "value": "0.00",
            "currency": "USD"
          }
        }
      ],
      "buyingOptions": [
        "FIXED_PRICE"
      ],
      "currentBidPrice": {
        "value": "203.66",
        "currency": "USD"
      },
      "itemAffiliateWebUrl": "https://rover.ebay.com/rover/1/711-53200-19255-0/1?campid=%3CePNCampaignId%3E&customid=%3CreferenceId%3E&toolid=10049&mpre=http%3A%2F%2Fwww.ebay.com%2Fitm%2FApple-iPhone-5S-16GB-Silver-LTE-Cellular-AT-T-ME306LL-A%2F110205978960%3Fsrc%3Durllib%26hash%3Ditem19a8c9c950%3Am%3AmtjmHzKvQMyw1yiq_iPIgGw",
      "itemWebUrl": "http://www.ebay.com/itm/Apple-iPhone-5S-16GB-Silver-LTE-Cellular-AT-T-ME306LL-A/110205978960?src=urllib&hash=item19a8c9c950:m:mtjmHzKvQMyw1yiq_iPIgGw",
      "itemLocation": {
        "postalCode": "72756",
        "country": "US"
      },
      "categories": [
        {
          "categoryId": "9355"
        },
        {
          "categoryId": "15032"
        }
      ],
      "additionalImages": [
        {
          "imageUrl": "https://galleryplus.ebayimg.com/ws/web/110205978960_2_0_1/225x225.jpg"
        },
        {
          "imageUrl": "https://galleryplus.ebayimg.com/ws/web/110205978960_3_0_1/225x225.jpg"
        }
      ],
      "adultOnly": false
    },
    {
      "itemId": "v1|110205984692|0",
      "title": "Apple iPhone 5S 16GB Space Gray LTE Cellular T-Mobile ME323LL/A",
      "image": {
        "imageUrl": "https://i.ebayimg.com/thumbs/images/m/mXw8coqdGjBv1j6Hs-JkkQw/s-l225.jpg"
      },
      "price": {
        "value": "199.20",
        "currency": "USD"
      },
      "itemHref": "https://api.sandbox.ebay.com/buy/browse/v1/item/v1|110205984692|0",
      "seller": {
        "feedbackScore": 500
      },
      "condition": "New",
      "conditionId": "1000",
      "shippingOptions": [
        {
          "shippingCostType": "FIXED",
          "shippingCost": {
            "value": "0.00",
            "currency": "USD"
          }
        }
      ],
      "buyingOptions": [
        "FIXED_PRICE"
      ],
      "currentBidPrice": {
        "value": "199.20",
        "currency": "USD"
      },
      "itemAffiliateWebUrl": "https://rover.ebay.com/rover/1/711-53200-19255-0/1?campid=%3CePNCampaignId%3E&customid=%3CreferenceId%3E&toolid=10049&mpre=http%3A%2F%2Fwww.ebay.com%2Fitm%2FApple-iPhone-5S-16GB-Space-Gray-LTE-Cellular-T-Mobile-ME323LL-A%2F110205984692%3Fsrc%3Durllib%26hash%3Ditem19a8c9dfb4%3Am%3AmXw8coqdGjBv1j6Hs-JkkQw",
      "itemWebUrl": "http://www.ebay.com/itm/Apple-iPhone-5S-16GB-Space-Gray-LTE-Cellular-T-Mobile-ME323LL-A/110205984692?src=urllib&hash=item19a8c9dfb4:m:mXw8coqdGjBv1j6Hs-JkkQw",
      "itemLocation": {
        "postalCode": "72756",
        "country": "US"
      },
      "categories": [
        {
          "categoryId": "9355"
        },
        {
          "categoryId": "15032"
        }
      ],
      "adultOnly": false
    },
    {
      "itemId": "v1|110198715637|0",
      "title": "New apple iphone 6S 10211610",
      "image": {
        "imageUrl": "https://i.ebayimg.com/thumbs/images/g/ce4AAOSwepJXcYht/s-l225.jpg"
      },
      "price": {
        "value": "165.00",
        "currency": "USD"
      },
      "itemHref": "https://api.sandbox.ebay.com/buy/browse/v1/item/v1|110198715637|0",
      "seller": {
        "feedbackScore": 107
      },
      "condition": "New",
      "conditionId": "1000",
      "shippingOptions": [
        {
          "shippingCostType": "FIXED",
          "shippingCost": {
            "value": "0.00",
            "currency": "USD"
          }
        }
      ],
      "buyingOptions": [
        "FIXED_PRICE"
      ],
      "currentBidPrice": {
        "value": "165.00",
        "currency": "USD"
      },
      "itemAffiliateWebUrl": "https://rover.ebay.com/rover/1/711-53200-19255-0/1?campid=%3CePNCampaignId%3E&customid=%3CreferenceId%3E&toolid=10049&mpre=http%3A%2F%2Fwww.ebay.com%2Fitm%2FNew-apple-iphone-6S-10211610%2F110198715637%3Fsrc%3Durllib%26hash%3Ditem19a85af4f5%3Ag%3Ace4AAOSwepJXcYht",
      "itemWebUrl": "http://www.ebay.com/itm/New-apple-iphone-6S-10211610/110198715637?src=urllib&hash=item19a85af4f5:g:ce4AAOSwepJXcYht",
      "itemLocation": {
        "postalCode": "95125",
        "country": "US"
      },
      "categories": [
        {
          "categoryId": "9355"
        },
        {
          "categoryId": "15032"
        }
      ],
      "additionalImages": [
        {
          "imageUrl": "https://galleryplus.ebayimg.com/ws/web/110198715637_2_0_1/225x225.jpg"
        }
      ],
      "adultOnly": false
    }
  ]
}