{
  "href": "https://api.sandbox.ebay.com/buy/browse/v1/item_summary/search?q=iphone&limit=10&offset=10",
  "total": 12805,
  "next": "https://api.sandbox.ebay.com/buy/browse/v1/item_summary/search?q=iphone&limit=10&offset=20",
  "prev": "https://api.sandbox.ebay.com/buy/browse/v1/item_summary/search?q=iphone&limit=10&offset=0",
  "limit": 10,
  "offset": 10,
  "itemSummaries": [
    {
      "itemId": "v1|110205978934|0",
      "title": "Apple iPhone 5S 16GB Gold LTE Cellular AT&T ME307LL/A",
      "image": {
        "imageUrl": "https://i.ebayimg.com/thumbs/images/m/m6NxE9QfeZYG6XNtuFz94WQ/s-l225.jpg"
      },
      "price": {
        "value": "239.60",
        "currency": "USD"
      },
      "itemHref": "https://api.sandbox.ebay.com/buy/browse/v1/item/v1|110205978934|0",
      "seller": {
        "feedbackScore": 500
      },
      "condition": "New",
      "conditionId": "1000",
      "shippingOptions": [
        {
          "shippingCostType": "FIXED",
          "shippingCost": {
            "value": "0.00",
            "currency": "USD"
          }
        }
      ],
      "buyingOptions": [
        "FIXED_PRICE"
      ],
      "currentBidPrice": {
        "value": "239.60",
        "currency": "USD"
      },
      "itemAffiliateWebUrl": "https://rover.ebay.com/rover/1/711-53200-19255-0/1?campid=%3CePNCampaignId%3E&customid=%3CreferenceId%3E&toolid=10049&mpre=http%3A%2F%2Fwww.ebay.com%2Fitm%2FApple-iPhone-5S-16GB-Gold-LTE-Cellular-AT-T-ME307LL-A%2F110205978934%3Fsrc%3Durllib%26hash%3Ditem19a8c9c936%3Am%3Am6NxE9QfeZYG6XNtuFz94WQ",
      "itemWebUrl": "http://www.ebay.com/itm/Apple-iPhone-5S-16GB-Gold-LTE-Cellular-AT-T-ME307LL-A/110205978934?src=urllib&hash=item19a8c9c936:m:m6NxE9QfeZYG6XNtuFz94WQ",
      "itemLocation": {
        "postalCode": "72756",
        "country": "US"
      },
      "categories": [
        {
          "categoryId": "9355"
        },
        {
          "categoryId": "15032"
        }
      ],
      "additionalImages": [
        {
          "imageUrl": "https://galleryplus.ebayimg.com/ws/web/110205978934_2_0_1/225x225.jpg"
        }
      ],
      "adultOnly": false
    },
    {
      "itemId": "v1|110211145412|0",
      "title": "Apple iPhone 5C 8GB Pink LTE Cellular Verizon MGFL2LL/A",
      "image": {
        "imageUrl": "https://i.ebayimg.com/thumbs/images/g/SJQAAOSwnehZcic6/s-l225.jpg"
      },
      "price": {
        "value": "186.66",
        "currency": "USD"
      },
      "itemHref": "https://api.sandbox.ebay.com/buy/browse/v1/item/v1|110211145412|0",
      "seller": {
        "feedbackScore": 500
      },
      "condition": "New",
      "conditionId": "1000",
      "shippingOptions": [
        {
          "shippingCostType": "FIXED",
          "shippingCost": {
            "value": "0.00",
            "currency": "USD"
          }
        }
      ],
      "buyingOptions": [
        "FIXED_PRICE"
      ],
      "currentBidPrice": {
        "value": "186.66",
        "currency": "USD"
      },
      "itemAffiliateWebUrl": "https://rover.ebay.com/rover/1/711-53200-19255-0/1?campid=%3CePNCampaignId%3E&customid=%3CreferenceId%3E&toolid=10049&mpre=http%3A%2F%2Fwww.ebay.com%2Fitm%2FApple-iPhone-5C-8GB-Pink-LTE-Cellular-Verizon-MGFL2LL-A%2F110211145412%3Fsrc%3Durllib%26hash%3Ditem19a9189ec4%3Ag%3ASJQAAOSwnehZcic6",
      "itemWebUrl": "http://www.ebay.com/itm/Apple-iPhone-5C-8GB-Pink-LTE-Cellular-Verizon-MGFL2LL-A/110211145412?src=urllib&hash=item19a9189ec4:g:SJQAAOSwnehZcic6",
      "itemLocation": {
        "postalCode": "72756",
        "country": "US"
      },
      "categories": [
        {
          "categoryId": "9355"
        },
        {
          "categoryId": "15032"
        }
      ],
      "additionalImages": [
        {
          "imageUrl": "https://galleryplus.ebayimg.com/ws/web/110211145412_2_0_1/225x225.jpg"
        },
        {
          "imageUrl": "https://galleryplus.ebayimg.com/ws/web/110211145412_3_0_1/225x225.jpg"
        }
      ],
      "adultOnly": false
    },
    {
      "itemId": "v1|110211234013|0",
      "title": "Apple iPhone 6S 16GB Gold LTE Cellular AT&T MKRE2LL/A",
      "price": {
        "value": "284.63",
        "currency": "USD"
      },
      "itemHref": "https://api.sandbox.ebay.com/buy/browse/v1/item/v1|110211234013|0",
      "seller": {
        "feedbackScore": 500
      },
      "condition": "New",
      "conditionId": "1000",
      "shippingOptions": [
        {
          "shippingCostType": "FIXED",
          "shippingCost": {
            "value": "0.00",
            "currency": "USD"
          }
        }
      ],
      "buyingOptions": [
        "FIXED_PRICE"
      ],
      "currentBidPrice": {
        "value": "284.63",
        "currency": "USD"
      },
      "itemAffiliateWebUrl": "https://rover.ebay.com/rover/1/711-53200-19255-0/1?campid=%3CePNCampaignId%3E&customid=%3CreferenceId%3E&toolid=10049&mpre=http%3A%2F%2Fwww.ebay.com%2Fitm%2FApple-iPhone-6S-16GB-Gold-LTE-Cellular-AT-T-MKRE2LL-A%2F110211234013%3Fsrc%3Durllib%26hash%3Ditem19a919f8dd%3Ai%3A110211234013",
      "itemWebUrl": "http://www.ebay.com/itm/Apple-iPhone-6S-16GB-Gold-LTE-Cellular-AT-T-MKRE2LL-A/110211234013?src=urllib&hash=item19a919f8dd:i:110211234013",
      "itemLocation": {
        "postalCode": "72756",
        "country": "US"
      },
      "categories": [
        {
          "categoryId": "9355"
        },
        {
          "categoryId": "15032"
        }
      ],
      "additionalImages": [
        {
          "imageUrl": "https://galleryplus.ebayimg.com/ws/web/110211234013_2_0_1/225x225.jpg"
        }
      ],
      "adultOnly": false
    },
    {
      "itemId": "v1|110241616140|0",
      "title": "Apple iPhone 7 Plus 32GB Rose Gold LTE Cellular TracFone MNQL2LL/A",
      "price": {
        "value": "404.39",
        "currency": "USD"
      },
      "itemHref": "https://api.sandbox.ebay.com/buy/browse/v1/item/v1|110241616140|0",
      "seller": {
        "feedbackScore": 500
      },
      "condition": "New",
      "conditionId": "1000",
      "shippingOptions": [
        {
          "shippingCostType": "FIXED",
          "shippingCost": {
            "value": "0.00",
            "currency": "USD"
          }
        }
      ],
      "buyingOptions": [
        "FIXED_PRICE"
      ],
      "currentBidPrice": {
        "value": "404.39",
        "currency": "USD"
      },
      "itemAffiliateWebUrl": "https://rover.ebay.com/rover/1/711-53200-19255-0/1?campid=%3CePNCampaignId%3E&customid=%3CreferenceId%3E&toolid=10049&mpre=http%3A%2F%2Fwww.ebay.com%2Fitm%2FApple-iPhone-7-Plus-32GB-Rose-Gold-LTE-Cellular-TracFone-MNQL2LL-A%2F110241616140%3Fsrc%3Durllib%26hash%3Ditem19aae9910c%3Ai%3A110241616140",
      "itemWebUrl": "http://www.ebay.com/itm/Apple-iPhone-7-Plus-32GB-Rose-Gold-LTE-Cellular-TracFone-MNQL2LL-A/110241616140?src=urllib&hash=item19aae9910c:i:110241616140",
      "itemLocation": {
        "postalCode": "72756",
        "country": "US"
      },
      "categories": [
        {
          "categoryId": "9355"
        },
        {
          "categoryId": "15032"
        }
      ],
      "adultOnly": false
    },
    {
      "itemId": "v1|110211275634|0",
      "title": "Apple iPhone 6S 16GB Rose Gold LTE Cellular AT&T MKRF2LL/A",
      "image": {
        "imageUrl": "https://i.ebayimg.com/thumbs/images/g/64kAAOSw4kpZcpdV/s-l225.jpg"
      },
      "price": {
        "value": "300.10",
        "currency": "USD"
      },
      "itemHref": "https://api.sandbox.ebay.com/buy/browse/v1/item/v1|110211275634|0",
      "seller": {
        "feedbackScore": 500
      },
      "condition": "New",
      "conditionId": "1000",
      "shippingOptions": [
        {
          "shippingCostType": "FIXED",
          "shippingCost": {
            "value": "0.00",
            "currency": "USD"
          }
        }
      ],
      "buyingOptions": [
        "FIXED_PRICE"
      ],
      "currentBidPrice": {
        "value": "300.10",
        "currency": "USD"
      },
      "itemAffiliateWebUrl": "https://rover.ebay.com/rover/1/711-53200-19255-0/1?campid=%3CePNCampaignId%3E&customid=%3CreferenceId%3E&toolid=10049&mpre=http%3A%2F%2Fwww.ebay.com%2Fitm%2FApple-iPhone-6S-16GB-Rose-Gold-LTE-Cellular-AT-T-MKRF2LL-A%2F110211275634%3Fsrc%3Durllib%26hash%3Ditem19a91a9b72%3Ag%3A64kAAOSw4kpZcpdV",
      "itemWebUrl": "http://www.ebay.com/itm/Apple-iPhone-6S-16GB-Rose-Gold-LTE-Cellular-AT-T-MKRF2LL-A/110211275634?src=urllib&hash=item19a91a9b72:g:64kAAOSw4kpZcpdV",
      "itemLocation": {
        "postalCode": "72756",
        "country": "US"
      },
      "categories": [
        {
          "categoryId": "9355"
        },
        {
          "categoryId": "15032"
        }
      ],
      "adultOnly": false
    },
    {
      "itemId": "v1|110215122998|0",
      "title": "Apple iPhone 6 16GB Space Gray LTE Cellular Straight Talk MG5H2LL/A",
      "price": {
        "value": "220.11",
        "currency": "USD"
      },
      "itemHref": "https://api.sandbox.ebay.com/buy/browse/v1/item/v1|110215122998|0",
      "seller": {
        "feedbackScore": 500
      },
      "condition": "New",
      "conditionId": "1000",
      "shippingOptions": [
        {
          "shippingCostType": "FIXED",
          "shippingCost": {
            "value": "0.00",
            "currency": "USD"
          }
        }
      ],
      "buyingOptions": [
        "FIXED_PRICE"
      ],
      "currentBidPrice": {
        "value": "220.11",
        "currency": "USD"
      },
      "itemAffiliateWebUrl": "https://rover.ebay.com/rover/1/711-53200-19255-0/1?campid=%3CePNCampaignId%3E&customid=%3CreferenceId%3E&toolid=10049&mpre=http%3A%2F%2Fwww.ebay.com%2Fitm%2FApple-iPhone-6-16GB-Space-Gray-LTE-Cellular-Straight-Talk-MG5H2LL-A%2F110215122998%3Fsrc%3Durllib%26hash%3Ditem19a9555036%3Ai%3A110215122998",
      "itemWebUrl": "http://www.ebay.com/itm/Apple-iPhone-6-16GB-Space-Gray-LTE-Cellular-Straight-Talk-MG5H2LL-A/110215122998?src=urllib&hash=item19a9555036:i:110215122998",
      "itemLocation": {
        "postalCode": "72756",
        "country": "US"
      },
      "categories": [
        {
          "categoryId": "9355"
        },
        {
          "categoryId": "15032"
        }
      ],
      "additionalImages": [
        {
          "imageUrl": "https://galleryplus.ebayimg.com/ws/web/110215122998_2_0_1/225x225.jpg"
        }
      ],
      "adultOnly": false
    },
    {
      "itemId": "v1|110249006134|0",
      "title": "Apple IPhone 7 Plus Smartphone - 128GB (Gold)",
      "price": {
        "value": "880.00",
        "currency": "USD"
      },
      "itemHref": "https://api.sandbox.ebay.com/buy/browse/v1/item/v1|110249006134|0",
      "seller": {
        "feedbackScore": 500
      },
      "condition": "New",
      "conditionId": "1000",
      "shippingOptions": [
        {
          "shippingCostType": "FIXED",
          "shippingCost": {
            "value": "0.00",
            "currency": "USD"
          }
        }
      ],
      "buyingOptions": [
        "FIXED_PRICE"
      ],
      "currentBidPrice": {
        "value": "880.00",
        "currency": "USD"
      },
      "itemAffiliateWebUrl": "https://rover.ebay.com/rover/1/711-53200-19255-0/1?campid=%3CePNCampaignId%3E&customid=%3CreferenceId%3E&toolid=10049&mpre=http%3A%2F%2Fwww.ebay.com%2Fitm%2FApple-IPhone-7-Plus-Smartphone-128GB-Gold%2F110249006134%3Fsrc%3Durllib%26hash%3Ditem19ab5a5436%3Ai%3A110249006134",
      "itemWebUrl": "http://www.ebay.com/itm/Apple-IPhone-7-Plus-Smartphone-128GB-Gold/110249006134?src=urllib&hash=item19ab5a5436:i:110249006134",
      "itemLocation": {
        "postalCode": "98102",
        "country": "US"
      },
      "categories": [
        {
          "categoryId": "9355"
        },
        {
          "categoryId": "15032"
        }
      ],
      "adultOnly": false
    },
    {
      "itemId": "v1|110211173481|0",
      "title": "Apple iPhone 5C 8GB Blue LTE Cellular Sprint MGFP2LL/A",
      "image": {
        "imageUrl": "https://i.ebayimg.com/thumbs/images/g/xsIAAOSwjs9ZckWX/s-l225.jpg"
      },
      "price": {
        "value": "249.00",
        "currency": "USD"
      },
      "itemHref": "https://api.sandbox.ebay.com/buy/browse/v1/item/v1|110211173481|0",
      "seller": {
        "feedbackScore": 500
      },
      "condition": "New",
      "conditionId": "1000",
      "shippingOptions": [
        {
          "shippingCostType": "FIXED",
          "shippingCost": {
            "value": "0.00",
            "currency": "USD"
          }
        }
      ],
      "buyingOptions": [
        "FIXED_PRICE"
      ],
      "currentBidPrice": {
        "value": "249.00",
        "currency": "USD"
      },
      "itemAffiliateWebUrl": "https://rover.ebay.com/rover/1/711-53200-19255-0/1?campid=%3CePNCampaignId%3E&customid=%3CreferenceId%3E&toolid=10049&mpre=http%3A%2F%2Fwww.ebay.com%2Fitm%2FApple-iPhone-5C-8GB-Blue-LTE-Cellular-Sprint-MGFP2LL-A%2F110211173481%3Fsrc%3Durllib%26hash%3Ditem19a9190c69%3Ag%3AxsIAAOSwjs9ZckWX",
      "itemWebUrl": "http://www.ebay.com/itm/Apple-iPhone-5C-8GB-Blue-LTE-Cellular-Sprint-MGFP2LL-A/110211173481?src=urllib&hash=item19a9190c69:g:xsIAAOSwjs9ZckWX",
      "itemLocation": {
        "postalCode": "72756",
        "country": "US"
      },
      "categories": [
        {
          "categoryId": "9355"
        },
        {
          "categoryId": "15032"
        }
      ],
      "additionalImages": [
        {
          "imageUrl": "https://galleryplus.ebayimg.com/ws/web/110211173481_2_0_1/225x225.jpg"
        },
        {
          "imageUrl": "https://galleryplus.ebayimg.com/ws/web/110211173481_3_0_1/225x225.jpg"
        }
      ],
      "adultOnly": false
    },
    {
      "itemId": "v1|110201264797|0",
      "title": "Apple iPhone 5C 8GB White LTE Cellular Verizon MGFG2LL/A",
      "price": {
        "value": "251.71",
        "currency": "USD"
      },
      "itemHref": "https://api.sandbox.ebay.com/buy/browse/v1/item/v1|110201264797|0",
      "seller": {
        "feedbackScore": 500
      },
      "condition": "New",
      "conditionId": "1000",
      "shippingOptions": [
        {
          "shippingCostType": "FIXED",
          "shippingCost": {
            "value": "0.00",
            "currency": "USD"
          }
        }
      ],
      "buyingOptions": [
        "FIXED_PRICE"
      ],
      "currentBidPrice": {
        "value": "251.71",
        "currency": "USD"
      },
      "itemAffiliateWebUrl": "https://rover.ebay.com/rover/1/711-53200-19255-0/1?campid=%3CePNCampaignId%3E&customid=%3CreferenceId%3E&toolid=10049&mpre=http%3A%2F%2Fwww.ebay.com%2Fitm%2FApple-iPhone-5C-8GB-White-LTE-Cellular-Verizon-MGFG2LL-A%2F110201264797%3Fsrc%3Durllib%26hash%3Ditem19a881da9d%3Ai%3A110201264797",
      "itemWebUrl": "http://www.ebay.com/itm/Apple-iPhone-5C-8GB-White-LTE-Cellular-Verizon-MGFG2LL-A/110201264797?src=urllib&hash=item19a881da9d:i:110201264797",
      "itemLocation": {
        "postalCode": "72756",
        "country": "US"
      },
      "categories": [
        {
          "categoryId": "9355"
        },
        {
          "categoryId": "15032"
        }
      ],
      "additionalImages": [
        {
          "imageUrl": "https://galleryplus.ebayimg.com/ws/web/110201264797_2_0_1/225x225.jpg"
        },
        {
          "imageUrl": "https://galleryplus.ebayimg.com/ws/web/110201264797_3_0_1/225x225.jpg"
        }
      ],
      "adultOnly": false
    },
    {
      "itemId": "v1|110211426451|0",
      "title": "Apple iPhone SE 16GB Silver LTE Cellular MLLX2LL/A",
      "image": {
        "imageUrl": "https://i.ebayimg.com/thumbs/images/g/ei0AAOSwjs9Zcx5h/s-l225.jpg"
      },
      "price": {
        "value": "395.14",
        "currency": "USD"
      },
      "itemHref": "https://api.sandbox.ebay.com/buy/browse/v1/item/v1|110211426451|0",
      "seller": {
        "feedbackScore": 500
      },
      "condition": "New",
      "conditionId": "1000",
      "shippingOptions": [
        {
          "shippingCostType": "FIXED",
          "shippingCost": {
            "value": "0.00",
            "currency": "USD"
          }
        }
      ],
      "buyingOptions": [
        "FIXED_PRICE"
      ],
      "currentBidPrice": {
        "value": "395.14",
        "currency": "USD"
      },
      "itemAffiliateWebUrl": "https://rover.ebay.com/rover/1/711-53200-19255-0/1?campid=%3CePNCampaignId%3E&customid=%3CreferenceId%3E&toolid=10049&mpre=http%3A%2F%2Fwww.ebay.com%2Fitm%2FApple-iPhone-SE-16GB-Silver-LTE-Cellular-MLLX2LL-A%2F110211426451%3Fsrc%3Durllib%26hash%3Ditem19a91ce893%3Ag%3Aei0AAOSwjs9Zcx5h",
      "itemWebUrl": "http://www.ebay.com/itm/Apple-iPhone-SE-16GB-Silver-LTE-Cellular-MLLX2LL-A/110211426451?src=urllib&hash=item19a91ce893:g:ei0AAOSwjs9Zcx5h",
      "itemLocation": {
        "postalCode": "72756",
        "country": "US"
      },
      "categories": [
        {
          "categoryId": "9355"
        },
        {
          "categoryId": "15032"
        }
      ],
      "adultOnly": false
    }
  ]
}